<?xml version="1.0" encoding="UTF-8" standalone="no"?>
<!-- Created with Inkscape (http://www.inkscape.org/) -->

<svg
   xmlns:dc="http://purl.org/dc/elements/1.1/"
   xmlns:cc="http://creativecommons.org/ns#"
   xmlns:rdf="http://www.w3.org/1999/02/22-rdf-syntax-ns#"
   xmlns:svg="http://www.w3.org/2000/svg"
   xmlns="http://www.w3.org/2000/svg"
   xmlns:sodipodi="http://sodipodi.sourceforge.net/DTD/sodipodi-0.dtd"
   xmlns:inkscape="http://www.inkscape.org/namespaces/inkscape"
   width="308"
   height="88"
   id="svg5679"
   version="1.1"
   inkscape:version="0.48.0 r9654"
   sodipodi:docname="icegridSimpleAplication.svg">
  <defs
     id="defs5681">
    <marker
       inkscape:stockid="Arrow1Lend"
       orient="auto"
       refY="0"
       refX="0"
       id="Arrow1Lend"
       style="overflow:visible">
      <path
         id="path4601"
         d="M 0,0 5,-5 -12.5,0 5,5 0,0 z"
         style="fill-rule:evenodd;stroke:#000000;stroke-width:1pt;marker-start:none"
         transform="matrix(-0.8,0,0,-0.8,-10,0)"
         inkscape:connector-curvature="0" />
    </marker>
    <marker
       inkscape:stockid="Arrow1Lstart"
       orient="auto"
       refY="0"
       refX="0"
       id="Arrow1Lstart"
       style="overflow:visible">
      <path
         id="path4598"
         d="M 0,0 5,-5 -12.5,0 5,5 0,0 z"
         style="fill-rule:evenodd;stroke:#000000;stroke-width:1pt;marker-start:none"
         transform="matrix(0.8,0,0,0.8,10,0)"
         inkscape:connector-curvature="0" />
    </marker>
    <clipPath
       id="clipPath6211"
       clipPathUnits="userSpaceOnUse">
      <path
         id="path6213"
         d="m 0,0 820,0 0,478.648 -820,0 L 0,0 z"
         inkscape:connector-curvature="0" />
    </clipPath>
    <clipPath
       id="clipPath6243"
       clipPathUnits="userSpaceOnUse">
      <path
         id="path6245"
         d="m 0,3.19141 359.121,0 0,300 -359.121,0 0,-300 z"
         inkscape:connector-curvature="0" />
    </clipPath>
    <clipPath
       id="clipPath6404"
       clipPathUnits="userSpaceOnUse">
      <path
         id="path6406"
         d="m 0,251.797 370,0 0,-250.00012 -370,0 0,250.00012"
         inkscape:connector-curvature="0" />
    </clipPath>
    <clipPath
       id="clipPath6454"
       clipPathUnits="userSpaceOnUse">
      <path
         id="path6456"
         d="m 0,301.098 210,0 0,-300.00034 -210,0 0,300.00034"
         inkscape:connector-curvature="0" />
    </clipPath>
    <clipPath
       id="clipPath6522"
       clipPathUnits="userSpaceOnUse">
      <path
         id="path6524"
         d="m 0,1.08984 215.152,0 0,300 -215.152,0 0,-300 z"
         inkscape:connector-curvature="0" />
    </clipPath>
    <clipPath
       id="clipPath6404-0"
       clipPathUnits="userSpaceOnUse">
      <path
         inkscape:connector-curvature="0"
         id="path6406-7"
         d="m 0,251.797 370,0 0,-250.00012 -370,0 0,250.00012" />
    </clipPath>
    <clipPath
       id="clipPath6404-6"
       clipPathUnits="userSpaceOnUse">
      <path
         inkscape:connector-curvature="0"
         id="path6406-0"
         d="m 0,251.797 370,0 0,-250.00012 -370,0 0,250.00012" />
    </clipPath>
    <clipPath
       id="clipPath6454-8"
       clipPathUnits="userSpaceOnUse">
      <path
         inkscape:connector-curvature="0"
         id="path6456-3"
         d="m 0,301.098 210,0 0,-300.00034 -210,0 0,300.00034" />
    </clipPath>
    <clipPath
       id="clipPath6522-3"
       clipPathUnits="userSpaceOnUse">
      <path
         inkscape:connector-curvature="0"
         id="path6524-5"
         d="m 0,1.08984 215.152,0 0,300 -215.152,0 0,-300 z" />
    </clipPath>
    <clipPath
       id="clipPath6243-6"
       clipPathUnits="userSpaceOnUse">
      <path
         inkscape:connector-curvature="0"
         id="path6245-0"
         d="m 0,3.19141 359.121,0 0,300 -359.121,0 0,-300 z" />
    </clipPath>
    <clipPath
       id="clipPath6243-5"
       clipPathUnits="userSpaceOnUse">
      <path
         inkscape:connector-curvature="0"
         id="path6245-6"
         d="m 0,3.19141 359.121,0 0,300 -359.121,0 0,-300 z" />
    </clipPath>
    <clipPath
       id="clipPath6243-2"
       clipPathUnits="userSpaceOnUse">
      <path
         inkscape:connector-curvature="0"
         id="path6245-69"
         d="m 0,3.19141 359.121,0 0,300 -359.121,0 0,-300 z" />
    </clipPath>
    <clipPath
       id="clipPath6454-6"
       clipPathUnits="userSpaceOnUse">
      <path
         inkscape:connector-curvature="0"
         id="path6456-4"
         d="m 0,301.098 210,0 0,-300.00034 -210,0 0,300.00034" />
    </clipPath>
    <clipPath
       id="clipPath6243-6-4"
       clipPathUnits="userSpaceOnUse">
      <path
         inkscape:connector-curvature="0"
         id="path6245-0-1"
         d="m 0,3.19141 359.121,0 0,300 -359.121,0 0,-300 z" />
    </clipPath>
    <clipPath
       id="clipPath6243-6-4-8"
       clipPathUnits="userSpaceOnUse">
      <path
         inkscape:connector-curvature="0"
         id="path6245-0-1-2"
         d="m 0,3.19141 359.121,0 0,300 -359.121,0 0,-300 z" />
    </clipPath>
    <clipPath
       id="clipPath6243-6-4-2"
       clipPathUnits="userSpaceOnUse">
      <path
         inkscape:connector-curvature="0"
         id="path6245-0-1-8"
         d="m 0,3.19141 359.121,0 0,300 -359.121,0 0,-300 z" />
    </clipPath>
    <marker
       inkscape:stockid="Arrow1Lstart"
       orient="auto"
       refY="0"
       refX="0"
       id="Arrow1Lstart-9"
       style="overflow:visible">
      <path
         id="path4598-2"
         d="M 0,0 5,-5 -12.5,0 5,5 0,0 z"
         style="fill-rule:evenodd;stroke:#000000;stroke-width:1pt;marker-start:none"
         transform="matrix(0.8,0,0,0.8,10,0)"
         inkscape:connector-curvature="0" />
    </marker>
    <marker
       inkscape:stockid="Arrow1Lend"
       orient="auto"
       refY="0"
       refX="0"
       id="Arrow1Lend-0"
       style="overflow:visible">
      <path
         id="path4601-1"
         d="M 0,0 5,-5 -12.5,0 5,5 0,0 z"
         style="fill-rule:evenodd;stroke:#000000;stroke-width:1pt;marker-start:none"
         transform="matrix(-0.8,0,0,-0.8,-10,0)"
         inkscape:connector-curvature="0" />
    </marker>
    <marker
       inkscape:stockid="Arrow1Lstart"
       orient="auto"
       refY="0"
       refX="0"
       id="marker4896"
       style="overflow:visible">
      <path
         id="path4898"
         d="M 0,0 5,-5 -12.5,0 5,5 0,0 z"
         style="fill-rule:evenodd;stroke:#000000;stroke-width:1pt;marker-start:none"
         transform="matrix(0.8,0,0,0.8,10,0)"
         inkscape:connector-curvature="0" />
    </marker>
    <marker
       inkscape:stockid="Arrow1Lend"
       orient="auto"
       refY="0"
       refX="0"
       id="marker4900"
       style="overflow:visible">
      <path
         id="path4902"
         d="M 0,0 5,-5 -12.5,0 5,5 0,0 z"
         style="fill-rule:evenodd;stroke:#000000;stroke-width:1pt;marker-start:none"
         transform="matrix(-0.8,0,0,-0.8,-10,0)"
         inkscape:connector-curvature="0" />
    </marker>
  </defs>
  <sodipodi:namedview
     id="base"
     pagecolor="#ffffff"
     bordercolor="#666666"
     borderopacity="1.0"
     inkscape:pageopacity="0.0"
     inkscape:pageshadow="2"
     inkscape:zoom="2.8"
     inkscape:cx="134.17608"
     inkscape:cy="31.202182"
     inkscape:document-units="px"
     inkscape:current-layer="layer1"
     showgrid="true"
     inkscape:window-width="1598"
     inkscape:window-height="670"
     inkscape:window-x="0"
     inkscape:window-y="24"
     inkscape:window-maximized="0"
     fit-margin-top="1"
     fit-margin-left="1"
     fit-margin-right="1"
     fit-margin-bottom="1"
     inkscape:object-paths="true"
     inkscape:snap-nodes="true"
     showguides="true"
     inkscape:guide-bbox="true">
    <inkscape:grid
       type="xygrid"
       id="grid4253"
       empspacing="5"
       visible="true"
       enabled="true"
       snapvisiblegridlinesonly="true" />
  </sodipodi:namedview>
  <metadata
     id="metadata5684">
    <rdf:RDF>
      <cc:Work
         rdf:about="">
        <dc:format>image/svg+xml</dc:format>
        <dc:type
           rdf:resource="http://purl.org/dc/dcmitype/StillImage" />
        <dc:title />
      </cc:Work>
    </rdf:RDF>
  </metadata>
  <g
     inkscape:label="Capa 1"
     inkscape:groupmode="layer"
     id="layer1"
     transform="translate(-41.4375,-757.0625)">
    <rect
       style="fill:#ffffe1;fill-opacity:1;stroke:#000000;stroke-width:0.98130673;stroke-miterlimit:4;stroke-opacity:1;stroke-dasharray:none"
       id="rect5284"
       width="90"
       height="85"
       x="42.9375"
       y="758.5625" />
    <rect
       style="fill:#c3ffc2;fill-opacity:1;stroke:#000000;stroke-width:0.77459668999999998;stroke-miterlimit:4;stroke-opacity:1;stroke-dasharray:none"
       id="rect5239"
       width="80.000008"
       height="15"
       x="47.9375"
       y="773.5625" />
    <rect
       style="fill:#ffffb5;fill-opacity:1;stroke:#000000;stroke-width:0.77459674999999983;stroke-miterlimit:4;stroke-opacity:1;stroke-dasharray:none"
       id="rect5239-4"
       width="80.000008"
       height="15.000003"
       x="47.9375"
       y="798.5625" />
    <rect
       style="fill:#ffffb5;fill-opacity:1;stroke:#000000;stroke-width:0.77459674999999983;stroke-miterlimit:4;stroke-opacity:1;stroke-dasharray:none"
       id="rect5239-4-0"
       width="80.000008"
       height="15.000001"
       x="47.9375"
       y="823.5625" />
    <text
       xml:space="preserve"
       style="font-size:6.80803108px;font-style:normal;font-weight:normal;line-height:125%;letter-spacing:0px;word-spacing:0px;fill:#000000;fill-opacity:1;stroke:none;font-family:Sans"
       x="53.185055"
       y="779.91486"
       id="text4070-0-2-9-6"
       sodipodi:linespacing="125%"
       transform="scale(0.99534478,1.004677)"><tspan
         sodipodi:role="line"
         x="53.185055"
         y="779.91486"
         id="tspan4537-8-95">          Registry</tspan></text>
    <text
       xml:space="preserve"
       style="font-size:6.80803108px;font-style:normal;font-weight:normal;line-height:125%;letter-spacing:0px;word-spacing:0px;fill:#000000;fill-opacity:1;stroke:none;font-family:Sans"
       x="53.185055"
       y="804.79852"
       id="text4070-0-2-9-6-8"
       sodipodi:linespacing="125%"
       transform="scale(0.99534478,1.004677)"><tspan
         sodipodi:role="line"
         x="53.185055"
         y="804.79852"
         id="tspan4537-8-95-8">          Node 1</tspan></text>
    <text
       xml:space="preserve"
       style="font-size:6.80803108px;font-style:normal;font-weight:normal;line-height:125%;letter-spacing:0px;word-spacing:0px;fill:#000000;fill-opacity:1;stroke:none;font-family:Sans"
       x="53.185055"
       y="829.68213"
       id="text4070-0-2-9-6-0"
       sodipodi:linespacing="125%"
       transform="scale(0.99534478,1.004677)"><tspan
         sodipodi:role="line"
         x="53.185055"
         y="829.68213"
         id="tspan4537-8-95-1">         Server 1</tspan></text>
    <text
       xml:space="preserve"
       style="font-size:6.80803108px;font-style:normal;font-weight:normal;line-height:125%;letter-spacing:0px;word-spacing:0px;fill:#000000;fill-opacity:1;stroke:none;font-family:Sans"
       x="48.161678"
       y="764.98468"
       id="text4070-0-2-9-6-0-4"
       sodipodi:linespacing="125%"
       transform="scale(0.99534478,1.004677)"><tspan
         sodipodi:role="line"
         x="48.161678"
         y="764.98468"
         id="tspan4537-8-95-1-9">Host: Pc_1</tspan></text>
    <rect
       style="fill:#ffffe1;fill-opacity:1;stroke:#000000;stroke-width:0.98130673;stroke-miterlimit:4;stroke-opacity:1;stroke-dasharray:none"
       id="rect5284-0"
       width="90"
       height="85"
       x="142.93753"
       y="758.5625" />
    <rect
       style="fill:#ffffb5;fill-opacity:1;stroke:#000000;stroke-width:0.77459674999999983;stroke-miterlimit:4;stroke-opacity:1;stroke-dasharray:none"
       id="rect5239-4-2"
       width="80.000008"
       height="15.000003"
       x="147.93753"
       y="798.5625" />
    <rect
       style="fill:#ffffb5;fill-opacity:1;stroke:#000000;stroke-width:0.77459674999999983;stroke-miterlimit:4;stroke-opacity:1;stroke-dasharray:none"
       id="rect5239-4-0-2"
       width="80.000008"
       height="15.000001"
       x="147.93753"
       y="823.5625" />
    <text
       xml:space="preserve"
       style="font-size:6.80803108px;font-style:normal;font-weight:normal;line-height:125%;letter-spacing:0px;word-spacing:0px;fill:#000000;fill-opacity:1;stroke:none;font-family:Sans"
       x="153.65271"
       y="804.79852"
       id="text4070-0-2-9-6-8-9"
       sodipodi:linespacing="125%"
       transform="scale(0.99534478,1.004677)"><tspan
         sodipodi:role="line"
         x="153.65271"
         y="804.79852"
         id="tspan4537-8-95-8-5">          Node 2</tspan></text>
    <text
       xml:space="preserve"
       style="font-size:6.80803108px;font-style:normal;font-weight:normal;line-height:125%;letter-spacing:0px;word-spacing:0px;fill:#000000;fill-opacity:1;stroke:none;font-family:Sans"
       x="153.65271"
       y="829.68213"
       id="text4070-0-2-9-6-0-9"
       sodipodi:linespacing="125%"
       transform="scale(0.99534478,1.004677)"><tspan
         sodipodi:role="line"
         x="153.65271"
         y="829.68213"
         id="tspan4537-8-95-1-6">         Server 2</tspan></text>
    <text
       xml:space="preserve"
       style="font-size:6.80803108px;font-style:normal;font-weight:normal;line-height:125%;letter-spacing:0px;word-spacing:0px;fill:#000000;fill-opacity:1;stroke:none;font-family:Sans"
       x="148.62939"
       y="764.98468"
       id="text4070-0-2-9-6-0-4-3"
       sodipodi:linespacing="125%"
       transform="scale(0.99534478,1.004677)"><tspan
         sodipodi:role="line"
         x="148.62939"
         y="764.98468"
         id="tspan4537-8-95-1-9-3">Host: Pc_2</tspan></text>
    <rect
       style="fill:#ffffe1;fill-opacity:1;stroke:#000000;stroke-width:0.98130673;stroke-miterlimit:4;stroke-opacity:1;stroke-dasharray:none"
       id="rect5284-9"
       width="90"
       height="85"
       x="257.93753"
       y="758.5625" />
    <rect
       style="fill:#ffffb5;fill-opacity:1;stroke:#000000;stroke-width:0.77459674999999983;stroke-miterlimit:4;stroke-opacity:1;stroke-dasharray:none"
       id="rect5239-4-5"
       width="80.000008"
       height="15.000003"
       x="262.93753"
       y="798.5625" />
    <rect
       style="fill:#ffffb5;fill-opacity:1;stroke:#000000;stroke-width:0.77459674999999983;stroke-miterlimit:4;stroke-opacity:1;stroke-dasharray:none"
       id="rect5239-4-0-6"
       width="80.000008"
       height="15.000001"
       x="262.93753"
       y="823.5625" />
    <text
       xml:space="preserve"
       style="font-size:6.80803108px;font-style:normal;font-weight:normal;line-height:125%;letter-spacing:0px;word-spacing:0px;fill:#000000;fill-opacity:1;stroke:none;font-family:Sans"
       x="269.19067"
       y="804.79852"
       id="text4070-0-2-9-6-8-4"
       sodipodi:linespacing="125%"
       transform="scale(0.99534478,1.004677)"><tspan
         sodipodi:role="line"
         x="269.19067"
         y="804.79852"
         id="tspan4537-8-95-8-0">          Node n</tspan></text>
    <text
       xml:space="preserve"
       style="font-size:6.80803108px;font-style:normal;font-weight:normal;line-height:125%;letter-spacing:0px;word-spacing:0px;fill:#000000;fill-opacity:1;stroke:none;font-family:Sans"
       x="269.19067"
       y="829.68213"
       id="text4070-0-2-9-6-0-8"
       sodipodi:linespacing="125%"
       transform="scale(0.99534478,1.004677)"><tspan
         sodipodi:role="line"
         x="269.19067"
         y="829.68213"
         id="tspan4537-8-95-1-8">         Server n</tspan></text>
    <text
       xml:space="preserve"
       style="font-size:6.80803108px;font-style:normal;font-weight:normal;line-height:125%;letter-spacing:0px;word-spacing:0px;fill:#000000;fill-opacity:1;stroke:none;font-family:Sans"
       x="264.16724"
       y="764.98468"
       id="text4070-0-2-9-6-0-4-30"
       sodipodi:linespacing="125%"
       transform="scale(0.99534478,1.004677)"><tspan
         sodipodi:role="line"
         x="264.16724"
         y="764.98468"
         id="tspan4537-8-95-1-9-9">Host: Pc_N</tspan></text>
    <text
       xml:space="preserve"
       style="font-size:11.17933369px;font-style:normal;font-weight:normal;line-height:125%;letter-spacing:0px;word-spacing:0px;fill:#000000;fill-opacity:1;stroke:none;font-family:Sans"
       x="228.74345"
       y="837.64191"
       id="text4070-0-2-9-6-0-4-4"
       sodipodi:linespacing="125%"
       transform="scale(1.0489372,0.95334592)"><tspan
         sodipodi:role="line"
         x="228.74345"
         y="837.64191"
         id="tspan4537-8-95-1-9-5">...</tspan></text>
  </g>
</svg>
