<?xml version="1.0" encoding="UTF-8" standalone="no"?>
<!-- Created with Inkscape (http://www.inkscape.org/) -->

<svg
   xmlns:dc="http://purl.org/dc/elements/1.1/"
   xmlns:cc="http://creativecommons.org/ns#"
   xmlns:rdf="http://www.w3.org/1999/02/22-rdf-syntax-ns#"
   xmlns:svg="http://www.w3.org/2000/svg"
   xmlns="http://www.w3.org/2000/svg"
   xmlns:sodipodi="http://sodipodi.sourceforge.net/DTD/sodipodi-0.dtd"
   xmlns:inkscape="http://www.inkscape.org/namespaces/inkscape"
   width="1180.6543"
   height="359.40857"
   id="svg4411"
   version="1.1"
   inkscape:version="0.48.0 r9654"
   sodipodi:docname="archJerarquicaNiveles.svg">
  <defs
     id="defs4413" />
  <sodipodi:namedview
     id="base"
     pagecolor="#ffffff"
     bordercolor="#666666"
     borderopacity="1.0"
     inkscape:pageopacity="0.0"
     inkscape:pageshadow="2"
     inkscape:zoom="0.98994949"
     inkscape:cx="387.93657"
     inkscape:cy="225.61137"
     inkscape:document-units="px"
     inkscape:current-layer="layer1"
     showgrid="true"
     inkscape:window-width="1600"
     inkscape:window-height="828"
     inkscape:window-x="0"
     inkscape:window-y="24"
     inkscape:window-maximized="1"
     fit-margin-top="1"
     fit-margin-left="1"
     fit-margin-right="1"
     fit-margin-bottom="1">
    <inkscape:grid
       type="xygrid"
       id="grid3313" />
  </sodipodi:namedview>
  <metadata
     id="metadata4416">
    <rdf:RDF>
      <cc:Work
         rdf:about="">
        <dc:format>image/svg+xml</dc:format>
        <dc:type
           rdf:resource="http://purl.org/dc/dcmitype/StillImage" />
        <dc:title />
      </cc:Work>
    </rdf:RDF>
  </metadata>
  <g
     inkscape:label="Capa 1"
     inkscape:groupmode="layer"
     id="layer1"
     transform="translate(43.089413,-367.3734)">
    <path
       style="fill:none;stroke:#000000;stroke-width:1px;stroke-linecap:butt;stroke-linejoin:miter;stroke-opacity:1"
       d="M 482.85714,42.265712 244.28571,119.40857"
       id="path5545"
       inkscape:connector-curvature="0"
       transform="translate(-43.089413,367.3734)" />
    <path
       style="fill:none;stroke:#000000;stroke-width:1.02964568px;stroke-linecap:butt;stroke-linejoin:miter;stroke-opacity:1"
       d="m 559.76773,408.21054 279.14286,75.57143"
       id="path5547"
       inkscape:connector-curvature="0" />
    <path
       style="fill:none;stroke:#000000;stroke-width:1px;stroke-linecap:butt;stroke-linejoin:miter;stroke-opacity:1"
       d="M 68.571429,305.52305 11.428571,379.80877"
       id="path4897"
       inkscape:connector-curvature="0"
       transform="translate(0,308.2677)" />
    <path
       style="fill:none;stroke:#000000;stroke-width:1px;stroke-linecap:butt;stroke-linejoin:miter;stroke-opacity:1"
       d="m 115.71429,312.66591 27.14285,67.14286"
       id="path4899"
       inkscape:connector-curvature="0"
       transform="translate(0,308.2677)" />
    <path
       style="fill:none;stroke:#000000;stroke-width:1px;stroke-linecap:butt;stroke-linejoin:miter;stroke-opacity:1"
       d="M 312.85714,318.3802 117.14286,375.52305"
       id="path4901"
       inkscape:connector-curvature="0"
       transform="translate(0,308.2677)" />
    <path
       style="fill:none;stroke:#000000;stroke-width:1px;stroke-linecap:butt;stroke-linejoin:miter;stroke-opacity:1"
       d="m 360,316.95163 -57.14286,58.57142"
       id="path4903"
       inkscape:connector-curvature="0"
       transform="translate(0,308.2677)" />
    <path
       style="fill:none;stroke:#000000;stroke-width:1px;stroke-linecap:butt;stroke-linejoin:miter;stroke-opacity:1"
       d="m 417.14286,316.95163 5.71428,58.57142"
       id="path4905"
       inkscape:connector-curvature="0"
       transform="translate(0,308.2677)" />
    <path
       style="fill:none;stroke:#000000;stroke-width:0.97901511px;stroke-linecap:butt;stroke-linejoin:miter;stroke-opacity:1"
       d="m 475.71429,625.21933 116.1963,56.56264"
       id="path4907"
       inkscape:connector-curvature="0" />
    <path
       style="fill:none;stroke:#000000;stroke-width:1.08798361px;stroke-linecap:butt;stroke-linejoin:miter;stroke-opacity:1"
       d="m 660,626.6479 -68.08941,55.13407"
       id="path4909"
       inkscape:connector-curvature="0" />
    <path
       style="fill:none;stroke:#000000;stroke-width:1px;stroke-linecap:butt;stroke-linejoin:miter;stroke-opacity:1"
       d="m 715.71429,318.3802 5.71428,61.42857"
       id="path4911"
       inkscape:connector-curvature="0"
       transform="translate(0,308.2677)" />
    <path
       style="fill:none;stroke:#000000;stroke-width:1px;stroke-linecap:butt;stroke-linejoin:miter;stroke-opacity:1"
       d="m 805.71429,314.09448 30,60"
       id="path4913"
       inkscape:connector-curvature="0"
       transform="translate(0,308.2677)" />
    <path
       style="fill:none;stroke:#000000;stroke-width:1px;stroke-linecap:butt;stroke-linejoin:miter;stroke-opacity:1"
       d="m 930,318.3802 -91.42857,58.57143"
       id="path4915"
       inkscape:connector-curvature="0"
       transform="translate(0,308.2677)" />
    <path
       style="fill:none;stroke:#000000;stroke-width:1px;stroke-linecap:butt;stroke-linejoin:miter;stroke-opacity:1"
       d="m 975.71429,318.3802 -4.28572,60"
       id="path4917"
       inkscape:connector-curvature="0"
       transform="translate(0,308.2677)" />
    <path
       style="fill:none;stroke:#000000;stroke-width:1px;stroke-linecap:butt;stroke-linejoin:miter;stroke-opacity:1"
       d="m 1070,319.80877 21.4286,60"
       id="path4919"
       inkscape:connector-curvature="0"
       transform="translate(0,308.2677)" />
    <path
       style="fill:none;stroke:#000000;stroke-width:1px;stroke-linecap:butt;stroke-linejoin:miter;stroke-opacity:1"
       d="M 164.28571,208.3802 94.285714,284.09448"
       id="path4760"
       inkscape:connector-curvature="0"
       transform="translate(0,308.2677)" />
    <path
       style="fill:none;stroke:#000000;stroke-width:1px;stroke-linecap:butt;stroke-linejoin:miter;stroke-opacity:1"
       d="m 255.71429,214.09448 140,67.14286"
       id="path4762"
       inkscape:connector-curvature="0"
       transform="translate(0,308.2677)" />
    <path
       style="fill:none;stroke:#000000;stroke-width:1px;stroke-linecap:butt;stroke-linejoin:miter;stroke-opacity:1"
       d="M 524.28571,102.66591 415.71429,286.95163"
       id="path4764"
       inkscape:connector-curvature="0"
       transform="translate(0,308.2677)" />
    <path
       style="fill:none;stroke:#000000;stroke-width:0.99629146px;stroke-linecap:butt;stroke-linejoin:miter;stroke-opacity:1"
       d="m 838.57143,518.07647 -441.66084,78.7055"
       id="path4766"
       inkscape:connector-curvature="0" />
    <path
       style="fill:none;stroke:#000000;stroke-width:1px;stroke-linecap:butt;stroke-linejoin:miter;stroke-opacity:1"
       d="M 865.71429,208.3802 750,286.95163"
       id="path4768"
       inkscape:connector-curvature="0"
       transform="translate(0,308.2677)" />
    <path
       style="fill:none;stroke:#000000;stroke-width:1px;stroke-linecap:butt;stroke-linejoin:miter;stroke-opacity:1"
       d="m 891.42857,209.80877 122.85713,74.28571"
       id="path4770"
       inkscape:connector-curvature="0"
       transform="translate(0,308.2677)" />
    <rect
       style="fill:#c3ffc2;fill-opacity:1;fill-rule:evenodd;stroke:#000000;stroke-width:1.70906055000000001;stroke-linecap:round;stroke-linejoin:miter;stroke-miterlimit:4;stroke-opacity:1;stroke-dasharray:none"
       id="rect2994-11"
       width="235"
       height="45"
       x="391.91058"
       y="369.78198" />
    <text
       xml:space="preserve"
       style="font-size:17.65927887px;font-style:normal;font-weight:normal;line-height:125%;letter-spacing:0px;word-spacing:0px;fill:#000000;fill-opacity:1;stroke:none;font-family:Sans"
       x="405.94891"
       y="395.80789"
       id="text2996-7"
       sodipodi:linespacing="125%"
       transform="scale(0.99708243,1.0029261)"><tspan
         sodipodi:role="line"
         id="tspan2998-9"
         x="405.94891"
         y="395.80789">Analizador / Controlador</tspan></text>
    <rect
       style="fill:#ffffb5;fill-opacity:1;fill-rule:evenodd;stroke:#000000;stroke-width:1.70906055000000001;stroke-linecap:round;stroke-linejoin:miter;stroke-miterlimit:4;stroke-opacity:1;stroke-dasharray:none"
       id="rect2994-97"
       width="235"
       height="45"
       x="86.910583"
       y="481.78198" />
    <text
       xml:space="preserve"
       style="font-size:17.65927887px;font-style:normal;font-weight:normal;line-height:125%;letter-spacing:0px;word-spacing:0px;fill:#000000;fill-opacity:1;stroke:none;font-family:Sans"
       x="100.05643"
       y="507.48108"
       id="text2996-8"
       sodipodi:linespacing="125%"
       transform="scale(0.99708243,1.0029261)"><tspan
         sodipodi:role="line"
         id="tspan2998-0"
         x="100.05643"
         y="507.48108">Analizador / Controlador</tspan></text>
    <rect
       style="fill:#ffffb5;fill-opacity:1;fill-rule:evenodd;stroke:#000000;stroke-width:1.70906055000000001;stroke-linecap:round;stroke-linejoin:miter;stroke-miterlimit:4;stroke-opacity:1;stroke-dasharray:none"
       id="rect2994"
       width="235"
       height="45"
       x="721.91058"
       y="481.78198" />
    <text
       xml:space="preserve"
       style="font-size:17.65927887px;font-style:normal;font-weight:normal;line-height:125%;letter-spacing:0px;word-spacing:0px;fill:#000000;fill-opacity:1;stroke:none;font-family:Sans"
       x="736.91443"
       y="507.48111"
       id="text2996"
       sodipodi:linespacing="125%"
       transform="scale(0.99708243,1.0029261)"><tspan
         sodipodi:role="line"
         id="tspan2998"
         x="736.91443"
         y="507.48111">Analizador / Controlador</tspan></text>
    <rect
       style="fill:#ffffdd;fill-opacity:1;fill-rule:evenodd;stroke:#000000;stroke-width:1.70906055000000001;stroke-linecap:round;stroke-linejoin:miter;stroke-miterlimit:4;stroke-opacity:1;stroke-dasharray:none"
       id="rect2994-46"
       width="235"
       height="45"
       x="-38.089413"
       y="586.78198" />
    <text
       xml:space="preserve"
       style="font-size:17.65927887px;font-style:normal;font-weight:normal;line-height:125%;letter-spacing:0px;word-spacing:0px;fill:#000000;fill-opacity:1;stroke:none;font-family:Sans"
       x="-25.309322"
       y="612.1748"
       id="text2996-80"
       sodipodi:linespacing="125%"
       transform="scale(0.99708243,1.0029261)"><tspan
         sodipodi:role="line"
         id="tspan2998-6"
         x="-25.309322"
         y="612.1748">Analizador / Controlador</tspan></text>
    <rect
       style="fill:#ffffdd;fill-opacity:1;fill-rule:evenodd;stroke:#000000;stroke-width:1.70906055000000001;stroke-linecap:round;stroke-linejoin:miter;stroke-miterlimit:4;stroke-opacity:1;stroke-dasharray:none"
       id="rect2994-2"
       width="235"
       height="45"
       x="266.91058"
       y="586.78198" />
    <text
       xml:space="preserve"
       style="font-size:17.65927887px;font-style:normal;font-weight:normal;line-height:125%;letter-spacing:0px;word-spacing:0px;fill:#000000;fill-opacity:1;stroke:none;font-family:Sans"
       x="280.5831"
       y="612.1748"
       id="text2996-74"
       sodipodi:linespacing="125%"
       transform="scale(0.99708243,1.0029261)"><tspan
         sodipodi:role="line"
         id="tspan2998-5"
         x="280.5831"
         y="612.1748">Analizador / Controlador</tspan></text>
    <rect
       style="fill:#ffffdd;fill-opacity:1;fill-rule:evenodd;stroke:#000000;stroke-width:1.70906055;stroke-linecap:round;stroke-linejoin:miter;stroke-miterlimit:4;stroke-opacity:1;stroke-dasharray:none"
       id="rect2994-0"
       width="235"
       height="45"
       x="591.91058"
       y="586.78198" />
    <text
       xml:space="preserve"
       style="font-size:17.65927887px;font-style:normal;font-weight:normal;line-height:125%;letter-spacing:0px;word-spacing:0px;fill:#000000;fill-opacity:1;stroke:none;font-family:Sans"
       x="606.53412"
       y="612.1748"
       id="text2996-0"
       sodipodi:linespacing="125%"
       transform="scale(0.99708243,1.0029261)"><tspan
         sodipodi:role="line"
         id="tspan2998-67"
         x="606.53412"
         y="612.1748">Analizador / Controlador</tspan></text>
    <rect
       style="fill:#ffffdd;fill-opacity:1;fill-rule:evenodd;stroke:#000000;stroke-width:1.70906055000000001;stroke-linecap:round;stroke-linejoin:miter;stroke-miterlimit:4;stroke-opacity:1;stroke-dasharray:none"
       id="rect2994-8"
       width="235"
       height="45"
       x="896.91064"
       y="586.78198" />
    <text
       xml:space="preserve"
       style="font-size:17.65927887px;font-style:normal;font-weight:normal;line-height:125%;letter-spacing:0px;word-spacing:0px;fill:#000000;fill-opacity:1;stroke:none;font-family:Sans"
       x="912.42664"
       y="612.1748"
       id="text2996-79"
       sodipodi:linespacing="125%"
       transform="scale(0.99708243,1.0029261)"><tspan
         sodipodi:role="line"
         id="tspan2998-52"
         x="912.42664"
         y="612.1748">Analizador / Controlador</tspan></text>
    <rect
       style="fill:#e1e1e1;fill-opacity:1;fill-rule:evenodd;stroke:#000000;stroke-width:1.77165353;stroke-linecap:round;stroke-linejoin:miter;stroke-miterlimit:4;stroke-opacity:1;stroke-dasharray:none"
       id="rect2994-9-4-72"
       width="55.888985"
       height="46.847672"
       x="-13.978397"
       y="676.78198" />
    <text
       xml:space="preserve"
       style="font-size:17.65927887px;font-style:normal;font-weight:normal;line-height:125%;letter-spacing:0px;word-spacing:0px;fill:#000000;fill-opacity:1;stroke:none;font-family:Sans"
       x="-0.86675555"
       y="703.45703"
       id="text2996-2-12"
       sodipodi:linespacing="125%"
       transform="scale(0.99708243,1.0029261)"><tspan
         sodipodi:role="line"
         id="tspan2998-8-27"
         x="-0.86675555"
         y="703.45703">IDS</tspan></text>
    <rect
       style="fill:#e1e1e1;fill-opacity:1;fill-rule:evenodd;stroke:#000000;stroke-width:1.77165353;stroke-linecap:round;stroke-linejoin:miter;stroke-miterlimit:4;stroke-opacity:1;stroke-dasharray:none"
       id="rect2994-9-4"
       width="55.888985"
       height="46.847672"
       x="101.91058"
       y="676.78198" />
    <text
       xml:space="preserve"
       style="font-size:17.65927887px;font-style:normal;font-weight:normal;line-height:125%;letter-spacing:0px;word-spacing:0px;fill:#000000;fill-opacity:1;stroke:none;font-family:Sans"
       x="115.36133"
       y="703.45703"
       id="text2996-2-12-9"
       sodipodi:linespacing="125%"
       transform="scale(0.99708243,1.0029261)"><tspan
         sodipodi:role="line"
         id="tspan2998-8-27-5"
         x="115.36133"
         y="703.45703">IDS</tspan></text>
    <rect
       style="fill:#e1e1e1;fill-opacity:1;fill-rule:evenodd;stroke:#000000;stroke-width:1.77165353;stroke-linecap:round;stroke-linejoin:miter;stroke-miterlimit:4;stroke-opacity:1;stroke-dasharray:none"
       id="rect2994-9-4-3"
       width="55.888985"
       height="46.847672"
       x="276.91058"
       y="676.78198" />
    <text
       xml:space="preserve"
       style="font-size:17.65927887px;font-style:normal;font-weight:normal;line-height:125%;letter-spacing:0px;word-spacing:0px;fill:#000000;fill-opacity:1;stroke:none;font-family:Sans"
       x="290.87338"
       y="703.45703"
       id="text2996-2-12-3"
       sodipodi:linespacing="125%"
       transform="scale(0.99708243,1.0029261)"><tspan
         sodipodi:role="line"
         id="tspan2998-8-27-6"
         x="290.87338"
         y="703.45703">IDS</tspan></text>
    <rect
       style="fill:#e1e1e1;fill-opacity:1;fill-rule:evenodd;stroke:#000000;stroke-width:1.77165353;stroke-linecap:round;stroke-linejoin:miter;stroke-miterlimit:4;stroke-opacity:1;stroke-dasharray:none"
       id="rect2994-9-4-0"
       width="55.888985"
       height="46.847672"
       x="391.91058"
       y="676.78198" />
    <text
       xml:space="preserve"
       style="font-size:17.65927887px;font-style:normal;font-weight:normal;line-height:125%;letter-spacing:0px;word-spacing:0px;fill:#000000;fill-opacity:1;stroke:none;font-family:Sans"
       x="406.20993"
       y="703.45703"
       id="text2996-2-12-33"
       sodipodi:linespacing="125%"
       transform="scale(0.99708243,1.0029261)"><tspan
         sodipodi:role="line"
         id="tspan2998-8-27-64"
         x="406.20993"
         y="703.45703">IDS</tspan></text>
    <rect
       style="fill:#e1e1e1;fill-opacity:1;fill-rule:evenodd;stroke:#000000;stroke-width:1.77165353;stroke-linecap:round;stroke-linejoin:miter;stroke-miterlimit:4;stroke-opacity:1;stroke-dasharray:none"
       id="rect2994-9-4-5"
       width="55.888985"
       height="46.847672"
       x="561.02161"
       y="676.78198" />
    <text
       xml:space="preserve"
       style="font-size:17.65927887px;font-style:normal;font-weight:normal;line-height:125%;letter-spacing:0px;word-spacing:0px;fill:#000000;fill-opacity:1;stroke:none;font-family:Sans"
       x="576.7074"
       y="703.45703"
       id="text2996-2-12-2"
       sodipodi:linespacing="125%"
       transform="scale(0.99708243,1.0029261)"><tspan
         sodipodi:role="line"
         id="tspan2998-8-27-7"
         x="576.7074"
         y="703.45703">IDS</tspan></text>
    <rect
       style="fill:#e1e1e1;fill-opacity:1;fill-rule:evenodd;stroke:#000000;stroke-width:1.77165353;stroke-linecap:round;stroke-linejoin:miter;stroke-miterlimit:4;stroke-opacity:1;stroke-dasharray:none"
       id="rect2994-9-4-37"
       width="55.888985"
       height="46.847672"
       x="691.91058"
       y="676.78198" />
    <text
       xml:space="preserve"
       style="font-size:17.65927887px;font-style:normal;font-weight:normal;line-height:125%;letter-spacing:0px;word-spacing:0px;fill:#000000;fill-opacity:1;stroke:none;font-family:Sans"
       x="707.08777"
       y="703.45703"
       id="text2996-2-12-7"
       sodipodi:linespacing="125%"
       transform="scale(0.99708243,1.0029261)"><tspan
         sodipodi:role="line"
         id="tspan2998-8-27-9"
         x="707.08777"
         y="703.45703">IDS</tspan></text>
    <rect
       style="fill:#e1e1e1;fill-opacity:1;fill-rule:evenodd;stroke:#000000;stroke-width:1.77165353;stroke-linecap:round;stroke-linejoin:miter;stroke-miterlimit:4;stroke-opacity:1;stroke-dasharray:none"
       id="rect2994-9-4-30"
       width="55.888985"
       height="46.847672"
       x="806.91058"
       y="676.78198" />
    <text
       xml:space="preserve"
       style="font-size:17.65927887px;font-style:normal;font-weight:normal;line-height:125%;letter-spacing:0px;word-spacing:0px;fill:#000000;fill-opacity:1;stroke:none;font-family:Sans"
       x="822.42426"
       y="703.45703"
       id="text2996-2-12-8"
       sodipodi:linespacing="125%"
       transform="scale(0.99708243,1.0029261)"><tspan
         sodipodi:role="line"
         id="tspan2998-8-27-3"
         x="822.42426"
         y="703.45703">IDS</tspan></text>
    <rect
       style="fill:#e1e1e1;fill-opacity:1;fill-rule:evenodd;stroke:#000000;stroke-width:1.77165353;stroke-linecap:round;stroke-linejoin:miter;stroke-miterlimit:4;stroke-opacity:1;stroke-dasharray:none"
       id="rect2994-9-4-8"
       width="55.888985"
       height="46.847672"
       x="941.91058"
       y="676.78198" />
    <text
       xml:space="preserve"
       style="font-size:17.65927887px;font-style:normal;font-weight:normal;line-height:125%;letter-spacing:0px;word-spacing:0px;fill:#000000;fill-opacity:1;stroke:none;font-family:Sans"
       x="957.81927"
       y="703.45703"
       id="text2996-2-12-6"
       sodipodi:linespacing="125%"
       transform="scale(0.99708243,1.0029261)"><tspan
         sodipodi:role="line"
         id="tspan2998-8-27-0"
         x="957.81927"
         y="703.45703">IDS</tspan></text>
    <rect
       style="fill:#e1e1e1;fill-opacity:1;fill-rule:evenodd;stroke:#000000;stroke-width:1.77165353;stroke-linecap:round;stroke-linejoin:miter;stroke-miterlimit:4;stroke-opacity:1;stroke-dasharray:none"
       id="rect2994-9-4-2"
       width="55.888985"
       height="46.847672"
       x="1056.9106"
       y="676.78198" />
    <text
       xml:space="preserve"
       style="font-size:17.65927887px;font-style:normal;font-weight:normal;line-height:125%;letter-spacing:0px;word-spacing:0px;fill:#000000;fill-opacity:1;stroke:none;font-family:Sans"
       x="1073.1558"
       y="703.45703"
       id="text2996-2-12-4"
       sodipodi:linespacing="125%"
       transform="scale(0.99708243,1.0029261)"><tspan
         sodipodi:role="line"
         id="tspan2998-8-27-67"
         x="1073.1558"
         y="703.45703">IDS</tspan></text>
  </g>
</svg>
