Inter-|   Receive                                                |  Transmit
 face |bytes    packets errs drop fifo frame compressed multicast|bytes    packets errs drop fifo colls carrier compressed
    lo:   12121     345    5    0    0     0          0         0    22112     645    1    0    0     0       0          0
  eth0:      50      25    6    0    0     0          0         0       75     100    2    0    0     0       0          0
 wlan0:   12345     122    7    0    0     0          0         0    10101     223    3    0    0     0       0          0
vboxnet0:     0       0    8    0    0     0          0         0        0       0    4    0    0     0       0          0
